<svg width="12" height="20" viewBox="0 0 12 20" fill="none" xmlns="http://www.w3.org/2000/svg">
<path d="M0.375 2.52344L2.26758 0.625L11.625 10L2.26758 19.375L0.375 17.4766L7.83398 10L0.375 2.52344Z" fill="#DCDCDC"/>
</svg>
